vizualize
…
  select(-total_fisheries_revenue_coastwide) %>% 
  # pivot longer
  pivot_longer(-time) %>% 
  # mutate region by stripping other
  mutate(
    region = name %>% 
      str_replace("total_fisheries_revenue_", "") %>% 
      str_to_upper()) %>% 
  # filter for not NA
  filter(!is.na(value)) %>% 
  # select columns
  select(time, region, value)
d_rgn

## # A tibble: 120 x 3
##    time                region value
##    <dttm>              <chr>  <dbl>
##  1 1981-01-01 00:00:00 CA     362. 
##  2 1981-01-01 00:00:00 OR     163. 
##  3 1981-01-01 00:00:00 WA     222. 
##  4 1982-01-01 00:00:00 CA     354. 
##  5 1982-01-01 00:00:00 OR     146. 
##  6 1982-01-01 00:00:00 WA     221. 
##  7 1983-01-01 00:00:00 CA     346. 
##  8 1983-01-01 00:00:00 OR      94.8
##  9 1983-01-01 00:00:00 WA     138. 
## 10 1984-01-01 00:00:00 CA     321. 
## # ... with 110 more rows
…
